\babel@toc {spanish}{}
\contentsline {section}{\numberline {1}Debian}{1}{section.1}%
\contentsline {subsection}{\numberline {1.1}Ubuntu}{2}{subsection.1.1}%
\contentsline {subsubsection}{\numberline {1.1.1}Entorno de Escritorio}{2}{subsubsection.1.1.1}%
\contentsline {section}{\numberline {2}Red Hat}{2}{section.2}%
\contentsline {section}{\numberline {3}Slackware}{3}{section.3}%
