\relax 
\providecommand\hyper@newdestlabel[2]{}
\@nameuse{bbl@beforestart}
\catcode `"\active 
\catcode `<\active 
\catcode `>\active 
\@nameuse{es@quoting}
\providecommand\HyperFirstAtBeginDocument{\AtBeginDocument}
\HyperFirstAtBeginDocument{\ifx\hyper@anchor\@undefined
\global\let\oldcontentsline\contentsline
\gdef\contentsline#1#2#3#4{\oldcontentsline{#1}{#2}{#3}}
\global\let\oldnewlabel\newlabel
\gdef\newlabel#1#2{\newlabelxx{#1}#2}
\gdef\newlabelxx#1#2#3#4#5#6{\oldnewlabel{#1}{{#2}{#3}}}
\AtEndDocument{\ifx\hyper@anchor\@undefined
\let\contentsline\oldcontentsline
\let\newlabel\oldnewlabel
\fi}
\fi}
\global\let\hyper@last\relax 
\gdef\HyperFirstAtBeginDocument#1{#1}
\providecommand\HyField@AuxAddToFields[1]{}
\providecommand\HyField@AuxAddToCoFields[2]{}
\babel@aux{spanish}{}
\@writefile{toc}{\contentsline {section}{\numberline {1}Debian}{1}{section.1}\protected@file@percent }
\@writefile{lof}{\contentsline {figure}{\numberline {1}{\ignorespaces Distro Debian}}{1}{figure.1}\protected@file@percent }
\newlabel{fig:debian}{{1}{1}{Distro Debian}{figure.1}{}}
\@writefile{toc}{\contentsline {subsection}{\numberline {1.1}Ubuntu}{2}{subsection.1.1}\protected@file@percent }
\@writefile{lof}{\contentsline {figure}{\numberline {2}{\ignorespaces Distro Ubuntu}}{2}{figure.2}\protected@file@percent }
\newlabel{fig:ubuntu}{{2}{2}{Distro Ubuntu}{figure.2}{}}
\@writefile{toc}{\contentsline {subsubsection}{\numberline {1.1.1}Entorno de Escritorio}{2}{subsubsection.1.1.1}\protected@file@percent }
\@writefile{lof}{\contentsline {figure}{\numberline {3}{\ignorespaces Entorno de Escritorio Gnome 4.0}}{2}{figure.3}\protected@file@percent }
\newlabel{fig:gnome}{{3}{2}{Entorno de Escritorio Gnome 4.0}{figure.3}{}}
\@writefile{toc}{\contentsline {section}{\numberline {2}Red Hat}{2}{section.2}\protected@file@percent }
\@writefile{lof}{\contentsline {figure}{\numberline {4}{\ignorespaces Distro Red Hat}}{3}{figure.4}\protected@file@percent }
\newlabel{fig:redhat}{{4}{3}{Distro Red Hat}{figure.4}{}}
\@writefile{toc}{\contentsline {section}{\numberline {3}Slackware}{3}{section.3}\protected@file@percent }
\@writefile{lof}{\contentsline {figure}{\numberline {5}{\ignorespaces Distro Slackware}}{3}{figure.5}\protected@file@percent }
\newlabel{fig:slackware}{{5}{3}{Distro Slackware}{figure.5}{}}
\@writefile{lof}{\contentsline {figure}{\numberline {6}{\ignorespaces Distro Gentoo}}{4}{figure.6}\protected@file@percent }
\newlabel{fig:gentoo}{{6}{4}{Distro Gentoo}{figure.6}{}}
